<?xml version="1.0" standalone="no"?>
<!DOCTYPE svg PUBLIC "-//W3C//DTD SVG 20010904//EN"
 "http://www.w3.org/TR/2001/REC-SVG-20010904/DTD/svg10.dtd">
<svg version="1.0" xmlns="http://www.w3.org/2000/svg"
 width="512.000000pt" height="512.000000pt" viewBox="0 0 512.000000 512.000000"
 preserveAspectRatio="xMidYMid meet">
<metadata>
Created by potrace 1.11, written by Peter Selinger 2001-2013
</metadata>
<g transform="translate(0.000000,512.000000) scale(0.100000,-0.100000)"
fill="#000000" stroke="none">
<path d="M180 2560 l0 -2560 348 0 348 0 -1 2212 0 2212 1030 0 1030 0 0 -89
c1 -247 -72 -573 -180 -811 -37 -81 -114 -220 -148 -264 -10 -14 -41 -56 -70
-95 -65 -89 -183 -213 -264 -277 l-63 -50 -73 30 c-157 65 -407 136 -547 157
-25 4 -58 9 -75 11 -78 13 -158 19 -245 19 l-95 0 0 -344 0 -345 55 -2 c329
-15 618 -100 890 -264 70 -42 189 -127 210 -150 3 -3 25 -21 50 -41 55 -44
150 -143 218 -224 165 -201 301 -473 365 -730 51 -202 58 -291 59 -672 l1
-283 343 0 344 0 1 23 c4 89 -1 613 -6 671 -10 112 -16 169 -21 196 -3 14 -9
52 -15 85 -58 341 -226 734 -447 1040 -92 127 -121 161 -266 306 l-130 130 50
47 c340 330 601 831 704 1352 15 80 31 177 35 215 4 39 9 84 12 100 2 17 6
238 7 493 l4 462 -1729 0 -1729 0 0 -2560z"/>
<path d="M4228 5034 c-157 -24 -228 -66 -319 -186 -29 -38 -38 -60 -44 -110
-10 -83 -12 -94 -25 -153 -6 -28 -10 -149 -10 -279 l1 -229 29 -42 29 -43 193
2 c106 0 199 5 207 10 7 5 21 26 31 47 13 32 15 50 8 92 -4 28 -8 72 -8 97 1
59 1 72 0 155 -1 140 18 225 55 239 33 12 46 5 62 -31 14 -32 17 -80 17 -313
1 -195 -2 -281 -11 -296 -19 -33 -85 -72 -133 -79 -25 -3 -56 -14 -70 -24 -25
-18 -25 -20 -27 -177 l-1 -159 37 -35 c33 -32 42 -35 94 -35 64 0 91 -18 106
-72 9 -31 7 -564 -2 -593 -2 -8 -8 -30 -12 -47 -6 -29 -12 -33 -39 -33 -17 0
-36 4 -42 8 -23 15 -36 57 -34 111 1 31 3 93 4 138 1 46 0 105 -4 133 -3 27
-3 53 2 58 10 10 -17 169 -32 187 -9 11 -169 22 -377 26 -18 0 -39 -7 -50 -18
-26 -26 -47 -79 -37 -95 5 -7 9 -101 10 -208 2 -249 9 -326 39 -415 38 -113
60 -157 99 -200 20 -22 36 -43 36 -46 0 -13 112 -59 188 -78 139 -35 163 -38
242 -24 41 8 91 12 112 10 51 -7 199 60 254 114 52 51 97 148 121 259 15 70
18 132 18 345 0 315 -6 379 -45 459 -26 55 -83 123 -133 159 -17 12 -14 18 45
78 65 66 110 144 128 222 13 61 9 544 -6 630 -12 72 -45 179 -69 227 -19 36
-103 119 -155 152 -105 67 -295 91 -482 62z"/>
</g>
</svg>
